{
  "formatVersion": 1,
  "database": {
    "version": 2,
    "identityHash": "60cc3e311348bb94c172439c1c32ac09",
    "entities": [
      {
        "tableName": "volumes",
        "createSql": "CREATE TABLE IF NOT EXISTS `${TABLE_NAME}` (`volume_id` TEXT NOT NULL, `name` TEXT NOT NULL, `volume_order` INTEGER NOT NULL, PRIMARY KEY(`volume_id`))",
        "fields": [
          {
            "fieldPath": "id",
            "columnName": "volume_id",
            "affinity": "TEXT",
            "notNull": true
          },
          {
            "fieldPath": "name",
            "columnName": "name",
            "affinity": "TEXT",
            "notNull": true
          },
          {
            "fieldPath": "order",
            "columnName": "volume_order",
            "affinity": "INTEGER",
            "notNull": true
          }
        ],
        "primaryKey": {
          "columnNames": [
            "volume_id"
          ],
          "autoGenerate": false
        },
        "indices": [],
        "foreignKeys": []
      },
      {
        "tableName": "books",
        "createSql": "CREATE TABLE IF NOT EXISTS `${TABLE_NAME}` (`book_id` TEXT NOT NULL, `volume_id` TEXT NOT NULL, `name` TEXT NOT NULL, `book_order` INTEGER NOT NULL, PRIMARY KEY(`book_id`))",
        "fields": [
          {
            "fieldPath": "bookId",
            "columnName": "book_id",
            "affinity": "TEXT",
            "notNull": true
          },
          {
            "fieldPath": "volumeId",
            "columnName": "volume_id",
            "affinity": "TEXT",
            "notNull": true
          },
          {
            "fieldPath": "bookName",
            "columnName": "name",
            "affinity": "TEXT",
            "notNull": true
          },
          {
            "fieldPath": "bookOrder",
            "columnName": "book_order",
            "affinity": "INTEGER",
            "notNull": true
          }
        ],
        "primaryKey": {
          "columnNames": [
            "book_id"
          ],
          "autoGenerate": false
        },
        "indices": [],
        "foreignKeys": []
      },
      {
        "tableName": "chapters",
        "createSql": "CREATE TABLE IF NOT EXISTS `${TABLE_NAME}` (`chapter_id` INTEGER NOT NULL, `volume_id` TEXT NOT NULL, `book_id` TEXT NOT NULL, `chapter` TEXT NOT NULL, `content` TEXT NOT NULL, PRIMARY KEY(`chapter_id`))",
        "fields": [
          {
            "fieldPath": "chapterId",
            "columnName": "chapter_id",
            "affinity": "INTEGER",
            "notNull": true
          },
          {
            "fieldPath": "volumeId",
            "columnName": "volume_id",
            "affinity": "TEXT",
            "notNull": true
          },
          {
            "fieldPath": "bookId",
            "columnName": "book_id",
            "affinity": "TEXT",
            "notNull": true
          },
          {
            "fieldPath": "chapter",
            "columnName": "chapter",
            "affinity": "TEXT",
            "notNull": true
          },
          {
            "fieldPath": "content",
            "columnName": "content",
            "affinity": "TEXT",
            "notNull": true
          }
        ],
        "primaryKey": {
          "columnNames": [
            "chapter_id"
          ],
          "autoGenerate": false
        },
        "indices": [],
        "foreignKeys": []
      },
      {
        "tableName": "paragraphs",
        "createSql": "CREATE TABLE IF NOT EXISTS `${TABLE_NAME}` (`paragraph_id` INTEGER NOT NULL, `volume_id` TEXT NOT NULL, `book_id` TEXT NOT NULL, `chapter_id` TEXT NOT NULL, `position` INTEGER NOT NULL, `paragraph` TEXT NOT NULL, PRIMARY KEY(`paragraph_id`))",
        "fields": [
          {
            "fieldPath": "paragraphId",
            "columnName": "paragraph_id",
            "affinity": "INTEGER",
            "notNull": true
          },
          {
            "fieldPath": "volumeId",
            "columnName": "volume_id",
            "affinity": "TEXT",
            "notNull": true
          },
          {
            "fieldPath": "bookId",
            "columnName": "book_id",
            "affinity": "TEXT",
            "notNull": true
          },
          {
            "fieldPath": "chapter",
            "columnName": "chapter_id",
            "affinity": "TEXT",
            "notNull": true
          },
          {
            "fieldPath": "position",
            "columnName": "position",
            "affinity": "INTEGER",
            "notNull": true
          },
          {
            "fieldPath": "paragraph",
            "columnName": "paragraph",
            "affinity": "TEXT",
            "notNull": true
          }
        ],
        "primaryKey": {
          "columnNames": [
            "paragraph_id"
          ],
          "autoGenerate": false
        },
        "indices": [],
        "foreignKeys": []
      },
      {
        "tableName": "bookmarks",
        "createSql": "CREATE TABLE IF NOT EXISTS `${TABLE_NAME}` (`bookmark_id` INTEGER PRIMARY KEY AUTOINCREMENT NOT NULL, `volume_id` TEXT NOT NULL, `book_id` TEXT NOT NULL, `name` TEXT NOT NULL, `chapter` TEXT NOT NULL, `paragraph` INTEGER NOT NULL)",
        "fields": [
          {
            "fieldPath": "id",
            "columnName": "bookmark_id",
            "affinity": "INTEGER",
            "notNull": true
          },
          {
            "fieldPath": "volumeId",
            "columnName": "volume_id",
            "affinity": "TEXT",
            "notNull": true
          },
          {
            "fieldPath": "bookId",
            "columnName": "book_id",
            "affinity": "TEXT",
            "notNull": true
          },
          {
            "fieldPath": "name",
            "columnName": "name",
            "affinity": "TEXT",
            "notNull": true
          },
          {
            "fieldPath": "chapter",
            "columnName": "chapter",
            "affinity": "TEXT",
            "notNull": true
          },
          {
            "fieldPath": "paragraph",
            "columnName": "paragraph",
            "affinity": "INTEGER",
            "notNull": true
          }
        ],
        "primaryKey": {
          "columnNames": [
            "bookmark_id"
          ],
          "autoGenerate": true
        },
        "indices": [],
        "foreignKeys": []
      }
    ],
    "views": [],
    "setupQueries": [
      "CREATE TABLE IF NOT EXISTS room_master_table (id INTEGER PRIMARY KEY,identity_hash TEXT)",
      "INSERT OR REPLACE INTO room_master_table (id,identity_hash) VALUES(42, '60cc3e311348bb94c172439c1c32ac09')"
    ]
  }
}